…
Using those genotypes…

``` r
genos_long_explicit_NAs %>%
  group_by(id) %>%
  tally()
```

    ## # A tibble: 287 x 2
    ##    id        n
    ##    <chr> <int>
    ##  1 s1      180
    ##  2 s10     180
    ##  3 s100    180
    ##  4 s101    180
    ##  5 s102    180
    ##  6 s103    180
    ##  7 s104    180
    ##  8 s105    180
    ##  9 s106    180
    ## 10 s107    180
    ## # ... with 277 more rows
…
    ## Joining, by = "locus"

``` r
# remind myself which species are in the baseline:
baseline90 %>%
  select(collection) %>%
  unique() %>%
  arrange()
```

    ## # A tibble: 54 x 1
    ##    collection   
    ##    <chr>        
    ##  1 aleutianus   
    ##  2 alutus       
    ##  3 auriculatus  
    ##  4 aurora       
    ##  5 babcocki     
    ##  6 borealis     
    ##  7 caurinus     
    ##  8 chlorostictus
    ##  9 constellatus 
    ## 10 crameri      
    ## # ... with 44 more rows
…
``` r
# take the top output for each sample
top_assign <- rubias_output$indiv_posteriors %>%
  group_by(indiv) %>%
  slice_max(., order_by = PofZ)


top_assign 
```

    ## # A tibble: 182 x 10
    ## # Groups:   indiv [182]
    ##    mixture~1 indiv repunit colle~2  PofZ log_l~3 z_score n_non~4 n_mis~5 missi~6
    ##    <chr>     <chr> <chr>   <chr>   <dbl>   <dbl>   <dbl>   <int>   <int> <list> 
    ##  1 blackspo~ s1    melano~ melano~     1   -64.1  2.37        80      10 <int>  
    ##  2 blackspo~ s10   melano~ melano~     1   -94.7 -0.0824      83       7 <int>  
    ##  3 blackspo~ s100  melano~ melano~     1   -73.9  1.64        82       8 <int>  
    ##  4 blackspo~ s101  melano~ melano~     1   -75.4  1.59        82       8 <int>  
    ##  5 blackspo~ s104  aleuti~ aleuti~     1   -64.3  0.128       83       7 <int>  
    ##  6 blackspo~ s105  aleuti~ aleuti~     1   -68.7 -0.245       82       8 <int>  
    ##  7 blackspo~ s106  aleuti~ aleuti~     1   -45.3  1.93        81       9 <int>  
    ##  8 blackspo~ s107  aleuti~ aleuti~     1   -71.8 -1.07        80      10 <int>  
    ##  9 blackspo~ s108  aleuti~ aleuti~     1   -67.6 -0.548       81       9 <int>  
    ## 10 blackspo~ s109  aleuti~ aleuti~     1   -50.8  1.14        82       8 <int>  
    ## # ... with 172 more rows, and abbreviated variable names 1: mixture_collection,
    ## #   2: collection, 3: log_likelihood, 4: n_non_miss_loci, 5: n_miss_loci,
    ## #   6: missing_loci
…
